RemoteRepoName,LocalRepoName,RemoteRepoURL,TargetDirectory
vs.data.llblgen,llblgen,https://git@bitbucket.org/davidhary/vs.data.llblgen.git,libraries\vs\data
vs.ide,ide,https://git@bitbucket.org/davidhary/vs.ide.git,libraries\vs\core
